{"page":1,"total_results":6481,"total_pages":325,"results":[{"vote_count":1906,"id":19404,"video":false,"vote_average":9.2,"title":"Dilwale Dulhania Le Jayenge","popularity":12.431,"poster_path":"\/uC6TTUhPpQCmgldGyYveKRAu8JN.jpg","original_language":"hi","original_title":"दिलवाले दुल्हनिया ले जायेंगे","genre_ids":[35,18,10749],"backdrop_path":"\/nl79FQ8xWZkhL3rDr1v2RFFR6J0.jpg","adult":false,"overview":"Raj is a rich, carefree, happy-go-lucky second generation NRI. Simran is the daughter of Chaudhary Baldev Singh, who in spite of being an NRI is very strict about adherence to Indian values. Simran has left for India to be married to her childhood fiancé. Raj leaves for India with a mission at his hands, to claim his lady love under the noses of her whole family. Thus begins a saga.","release_date":"1995-10-20"},{"vote_count":11462,"id":278,"video":false,"vote_average":8.6,"title":"The Shawshank Redemption","popularity":24.169,"poster_path":"\/9O7gLzmreU0nGkIB6K3BsJbzvNv.jpg","original_language":"en","original_title":"The Shawshank Redemption","genre_ids":[18,80],"backdrop_path":"\/j9XKiZrVeViAixVRzCta7h1VU9W.jpg","adult":false,"overview":"Framed in the 1940s for the double murder of his wife and her lover, upstanding banker Andy Dufresne begins a new life at the Shawshank prison, where he puts his accounting skills to work for an amoral warden. During his long stretch in prison, Dufresne comes to be admired by the other inmates -- including an older prisoner named Red -- for his integrity and unquenchable sense of hope.","release_date":"1994-09-23"},{"vote_count":8755,"id":238,"video":false,"vote_average":8.6,"title":"The Godfather","popularity":22.291,"poster_path":"\/rPdtLWNsZmAtoZl9PK7S2wE3qiS.jpg","original_language":"en","original_title":"The Godfather","genre_ids":[18,80],"backdrop_path":"\/6xKCYgH16UuwEGAyroLU6p8HLIn.jpg","adult":false,"overview":"Spanning the years 1945 to 1955, a chronicle of the fictional Italian-American Corleone crime family. When organized crime family patriarch, Vito Corleone barely survives an attempt on his life, his youngest son, Michael steps in to take care of the would-be killers, launching a campaign of bloody revenge.","release_date":"1972-03-14"},{"vote_count":3177,"id":372058,"video":false,"vote_average":8.6,"title":"Your Name.","popularity":17.586,"poster_path":"\/xq1Ugd62d23K2knRUx6xxuALTZB.jpg","original_language":"ja","original_title":"君の名は。","genre_ids":[10749,16,18],"backdrop_path":"\/6vkhRvsRvWpmaRVyCXaxTkIEb7j.jpg","adult":false,"overview":"High schoolers Mitsuha and Taki are complete strangers living separate lives. But one night, they suddenly switch places. Mitsuha wakes up in Taki’s body, and he in hers. This bizarre occurrence continues to happen randomly, and the two must adjust their lives around each other.","release_date":"2016-08-26"},{"vote_count":6787,"id":424,"video":false,"vote_average":8.5,"title":"Schindler's List","popularity":21.169,"poster_path":"\/yPisjyLweCl1tbgwgtzBCNCBle.jpg","original_language":"en","original_title":"Schindler's List","genre_ids":[18,36,10752],"backdrop_path":"\/cTNYRUTXkBgPH3wP3kmPUB5U6dA.jpg","adult":false,"overview":"The true story of how businessman Oskar Schindler saved over a thousand Jewish lives from the Nazis while they worked as slaves in his factory during World War II.","release_date":"1993-12-15"},{"vote_count":5091,"id":240,"video":false,"vote_average":8.5,"title":"The Godfather: Part II","popularity":14.487,"poster_path":"\/bVq65huQ8vHDd1a4Z37QtuyEvpA.jpg","original_language":"en","original_title":"The Godfather: Part II","genre_ids":[18,80],"backdrop_path":"\/gLbBRyS7MBrmVUNce91Hmx9vzqI.jpg","adult":false,"overview":"In the continuing saga of the Corleone crime family, a young Vito Corleone grows up in Sicily and in 1910s New York. In the 1950s, Michael Corleone attempts to expand the family business into Las Vegas, Hollywood and Cuba.","release_date":"1974-12-20"},{"vote_count":6281,"id":129,"video":false,"vote_average":8.5,"title":"Spirited Away","popularity":19.755,"poster_path":"\/zyBnGjqaPboLjSOXuHNl0oZbED6.jpg","original_language":"ja","original_title":"千と千尋の神隠し","genre_ids":[16,10751,14],"backdrop_path":"\/mnpRKVSXBX6jb56nabvmGKA0Wig.jpg","adult":false,"overview":"A young girl, Chihiro, becomes trapped in a strange new world of spirits. When her parents undergo a mysterious transformation, she must call upon the courage she never knew she had to free her family.","release_date":"2001-07-20"},{"vote_count":6159,"id":637,"video":false,"vote_average":8.4,"title":"Life Is Beautiful","popularity":13.434,"poster_path":"\/f7DImXDebOs148U4uPjI61iDvaK.jpg","original_language":"it","original_title":"La vita è bella","genre_ids":[35,18],"backdrop_path":"\/bORe0eI72D874TMawOOFvqWS6Xe.jpg","adult":false,"overview":"A touching story of an Italian book seller of Jewish ancestry who lives in his own little fairy tale. His creative and happy life would come to an abrupt halt when his entire family is deported to a concentration camp during World War II. While locked up he tries to convince his son that the whole thing is just a game.","release_date":"1997-12-20"},{"vote_count":6889,"id":497,"video":false,"vote_average":8.4,"title":"The Green Mile","popularity":18.336,"poster_path":"\/sOHqdY1RnSn6kcfAHKu28jvTebE.jpg","original_language":"en","original_title":"The Green Mile","genre_ids":[14,18,80],"backdrop_path":"\/Rlt20sEbOQKPVjia7lUilFm49W.jpg","adult":false,"overview":"A supernatural tale set on death row in a Southern prison, where gentle giant John Coffey possesses the mysterious power to heal people's ailments. When the cell block's head guard, Paul Edgecomb, recognizes Coffey's miraculous gift, he tries desperately to help stave off the condemned man's execution.","release_date":"1999-12-10"},{"vote_count":13136,"id":680,"video":false,"vote_average":8.4,"title":"Pulp Fiction","popularity":23.949,"poster_path":"\/dM2w364MScsjFf8pfMbaWUcWrR.jpg","original_language":"en","original_title":"Pulp Fiction","genre_ids":[53,80],"backdrop_path":"\/4cDFJr4HnXN5AdPw4AKrmLlMWdO.jpg","adult":false,"overview":"A burger-loving hit man, his philosophical partner, a drug-addled gangster's moll and a washed-up boxer converge in this sprawling, comedic crime caper. Their adventures unfurl in three stories that ingeniously trip back and forth in time.","release_date":"1994-09-10"},{"vote_count":327,"id":40096,"video":false,"vote_average":8.4,"title":"A Dog's Will","popularity":6.194,"poster_path":"\/uHEmM49YphluJnGep8Ef1qwD2QX.jpg","original_language":"pt","original_title":"O Auto da Compadecida","genre_ids":[12,35],"backdrop_path":"\/alQqTpmEkxSLgajfEYTsTH6nAKB.jpg","adult":false,"overview":"The lively João Grilo and the sly Chicó are poor guys living in the hinterland who cheat a bunch of people in a small Northeast Brazil town. But when they die, they have to be judged by Christ, the Devil and the Virgin Mary, before they are admitted to paradise.","release_date":"2000-09-15"},{"vote_count":4136,"id":539,"video":false,"vote_average":8.4,"title":"Psycho","popularity":14.237,"poster_path":"\/81d8oyEFgj7FlxJqSDXWr8JH8kV.jpg","original_language":"en","original_title":"Psycho","genre_ids":[18,27,53,9648],"backdrop_path":"\/3md49VBCeqY6MSNyAVY6d5eC6bA.jpg","adult":false,"overview":"When larcenous real estate clerk Marion Crane goes on the lam with a wad of cash and hopes of starting a new life, she ends up at the notorious Bates Motel, where manager Norman Bates cares for his housebound mother. The place seems quirky, but fine… until Marion decides to take a shower.","release_date":"1960-06-16"},{"vote_count":16782,"id":155,"video":false,"vote_average":8.4,"title":"The Dark Knight","popularity":40.634,"poster_path":"\/1hRoyzDtpgMU7Dz4JF22RANzQO7.jpg","original_language":"en","original_title":"The Dark Knight","genre_ids":[18,28,80,53],"backdrop_path":"\/hqkIcbrOHL86UncnHIsHVcVmzue.jpg","adult":false,"overview":"Batman raises the stakes in his war on crime. With the help of Lt. Jim Gordon and District Attorney Harvey Dent, Batman sets out to dismantle the remaining criminal organizations that plague the streets. The partnership proves to be effective, but they soon find themselves prey to a reign of chaos unleashed by a rising criminal mastermind known to the terrified citizens of Gotham as the Joker.","release_date":"2008-07-16"},{"vote_count":14291,"id":550,"video":false,"vote_average":8.4,"title":"Fight Club","popularity":18.619,"poster_path":"\/adw6Lq9FiC9zjYEpOqfq03ituwp.jpg","original_language":"en","original_title":"Fight Club","genre_ids":[18],"backdrop_path":"\/87hTDiay2N2qWyX4Ds7ybXi9h8I.jpg","adult":false,"overview":"A ticking-time-bomb insomniac and a slippery soap salesman channel primal male aggression into a shocking new form of therapy. Their concept catches on, with underground \"fight clubs\" forming in every town, until an eccentric gets in the way and ignites an out-of-control spiral toward oblivion.","release_date":"1999-10-15"},{"vote_count":1882,"id":311,"video":false,"vote_average":8.4,"title":"Once Upon a Time in America","popularity":10.519,"poster_path":"\/fqP3Q7DWMFqW7mh11hWXbNwN9rz.jpg","original_language":"en","original_title":"Once Upon a Time in America","genre_ids":[18,80],"backdrop_path":"\/vnT6HzjLSDrAweHn9xWykb8Ii6T.jpg","adult":false,"overview":"A former Prohibition-era Jewish gangster returns to the Lower East Side of Manhattan over thirty years later, where he once again must confront the ghosts and regrets of his old life.","release_date":"1984-05-23"},{"vote_count":12584,"id":13,"video":false,"vote_average":8.4,"title":"Forrest Gump","popularity":24.513,"poster_path":"\/yE5d3BUhE8hCnkMUJOo1QDoOGNz.jpg","original_language":"en","original_title":"Forrest Gump","genre_ids":[35,18,10749],"backdrop_path":"\/wMgbnUVS9wbRGAdki8fqxKU1O0N.jpg","adult":false,"overview":"A man with a low IQ has accomplished great things in his life and been present during significant historic events—in each case, far exceeding what anyone imagined he could do. But despite all he has achieved, his one true love eludes him.","release_date":"1994-07-06"},{"vote_count":1417,"id":11216,"video":false,"vote_average":8.4,"title":"Cinema Paradiso","popularity":10.721,"poster_path":"\/hYzCLju3W74nLhhRXfPkwDi1Tun.jpg","original_language":"it","original_title":"Nuovo Cinema Paradiso","genre_ids":[18,10749],"backdrop_path":"\/tVi83ttAeyMJinYpy6xfgJSpzvP.jpg","adult":false,"overview":"A filmmaker recalls his childhood, when he fell in love with the movies at his village's theater and formed a deep friendship with the theater's projectionist.","release_date":"1988-11-17"},{"vote_count":4836,"id":769,"video":false,"vote_average":8.4,"title":"GoodFellas","popularity":14.176,"poster_path":"\/hAPeXBdGDGmXRPj4OZZ0poH65Iu.jpg","original_language":"en","original_title":"GoodFellas","genre_ids":[18,80],"backdrop_path":"\/sw7mordbZxgITU877yTpZCud90M.jpg","adult":false,"overview":"The true story of Henry Hill, a half-Irish, half-Sicilian Brooklyn kid who is adopted by neighbourhood gangsters at an early age and climbs the ranks of a Mafia family under the guidance of Jimmy Conway.","release_date":"1990-09-12"},{"vote_count":4735,"id":510,"video":false,"vote_average":8.4,"title":"One Flew Over the Cuckoo's Nest","popularity":15.924,"poster_path":"\/2Sns5oMb356JNdBHgBETjIpRYy9.jpg","original_language":"en","original_title":"One Flew Over the Cuckoo's Nest","genre_ids":[18],"backdrop_path":"\/4E7YQcwui0PfNXguf4V2X8YocPC.jpg","adult":false,"overview":"While serving time for insanity at a state mental hospital, implacable rabble-rouser, Randle Patrick McMurphy inspires his fellow patients to rebel against the authoritarian rule of head nurse, Mildred Ratched.","release_date":"1975-11-18"},{"vote_count":742,"id":538362,"video":false,"vote_average":8.4,"title":"On My Skin","popularity":12.631,"poster_path":"\/woamzsZd0F4TF5kA00Dpy3ahGtB.jpg","original_language":"it","original_title":"Sulla mia pelle","genre_ids":[18],"backdrop_path":"\/lpuehRS74pgVYIQ6ZQ2fIAaoAvo.jpg","adult":false,"overview":"The incredible true story behind the most controversial Italian court cases in recent years. Stefano Cucchi was arrested for a minor crime and mysteriously found dead during his detention. In one week's time, a family is changed forever.","release_date":"2018-08-29"}]}